{
    "autosu": true,
    "colorscheme": "monokai",
    "diffgutter": true,
    "matchbrace": false,
    "pluginchannels": [
        "https://raw.githubusercontent.com/micro-editor/plugin-channel/master/channel.json"
    ],
    "pluginrepos": [],
    "splitBottom": true,
    "splitRight": true,
    "termtitle": true,
    "trimdiff": false
}
